module modernc.org/go0

go 1.23

require (
	golang.org/x/tools v0.30.0
	modernc.org/cc/v4 v4.24.4
	modernc.org/libqbe v0.1.41
)

require (
	github.com/dustin/go-humanize v1.0.1 // indirect
	github.com/google/uuid v1.6.0 // indirect
	github.com/mattn/go-isatty v0.0.20 // indirect
	github.com/ncruces/go-strftime v0.1.9 // indirect
	github.com/remyoudompheng/bigfft v0.0.0-20230129092748-24d4a6f8daec // indirect
	golang.org/x/exp v0.0.0-20231108232855-2478ac86f678 // indirect
	golang.org/x/mod v0.23.0 // indirect
	golang.org/x/sync v0.11.0 // indirect
	golang.org/x/sys v0.30.0 // indirect
	modernc.org/libc v1.61.12 // indirect
	modernc.org/mathutil v1.7.1 // indirect
	modernc.org/memory v1.8.2 // indirect
	modernc.org/opt v0.1.4 // indirect
	modernc.org/sortutil v1.2.1 // indirect
	modernc.org/strutil v1.2.1 // indirect
	modernc.org/token v1.1.0 // indirect
)
